%YAML 1.1
%TAG !u! tag:unity3d.com,2011:
--- !u!114 &11400000
MonoBehaviour:
  m_ObjectHideFlags: 0
  m_CorrespondingSourceObject: {fileID: 0}
  m_PrefabInstance: {fileID: 0}
  m_PrefabAsset: {fileID: 0}
  m_GameObject: {fileID: 0}
  m_Enabled: 1
  m_EditorHideFlags: 0
  m_Script: {fileID: 11500000, guid: bacc02617b1f27e4db0dad9db77ec80c, type: 3}
  m_Name: Category3Option2
  m_EditorClassIdentifier: 
  _optionName: Category 3 Option 2
  _image: {fileID: 21300000, guid: 5915a67b3070d904f8f7548730d1f942, type: 3}
